EESchema Schematic File Version 4
LIBS:0317_Single_MuPix10_SpTAB_HDI-cache
EELAYER 26 0
EELAYER END
$Descr A3 16535 11693
encoding utf-8
Sheet 1 1
Title "0317_Single_MuPix10_SpTAB_HDI"
Date ""
Rev ""
Comp "Mu3e Uni Heidelberg"
Comment1 ""
Comment2 ""
Comment3 ""
Comment4 ""
$EndDescr
$Comp
L 0317_Single_MuPix10_SpTAB_HDI-rescue:MuPix10_Pads-MuPix10 MPX1
U 1 1 5E20B25D
P 500 2350
F 0 "MPX1" H 6950 4215 50  0000 C CNN
F 1 "MuPix10_Pads" H 6950 4124 50  0000 C CNN
F 2 "MuPix10:MuPix10_SpTAB" H 6300 3600 50  0001 C CNN
F 3 "" H 6300 3600 50  0001 C CNN
	1    500  2350
	1    0    0    -1  
$EndComp
$Comp
L 0317_Single_MuPix10_SpTAB_HDI-rescue:MuPix10_Insert_Pads-MuPix10_Insert Mu1
U 1 1 5E20C31B
P 700 3950
F 0 "Mu1" H 8131 2478 50  0000 C CNN
F 1 "MuPix10_Insert_Pads" H 8131 2387 50  0000 C CNN
F 2 "MuPix10_Insert_Pads:MuPix10_Insert_Pads" H 700 3950 50  0001 C CNN
F 3 "" H 700 3950 50  0001 C CNN
	1    700  3950
	1    0    0    -1  
$EndComp
Wire Wire Line
	700  3950 700  2350
Wire Wire Line
	850  3950 850  3900
Wire Wire Line
	850  3900 800  3900
Wire Wire Line
	800  3900 800  2350
Wire Wire Line
	1000 3950 1000 3850
Wire Wire Line
	1000 3850 900  3850
Wire Wire Line
	900  3850 900  2350
Wire Wire Line
	1150 3950 1150 3800
Wire Wire Line
	1150 3800 1000 3800
Wire Wire Line
	1000 3800 1000 2350
Wire Wire Line
	1500 3950 1500 3750
Wire Wire Line
	1500 3750 1100 3750
Wire Wire Line
	1100 3750 1100 2350
Wire Wire Line
	1650 3950 1650 3700
Wire Wire Line
	1650 3700 1200 3700
Wire Wire Line
	1200 3700 1200 2350
Wire Wire Line
	1800 3950 1800 3650
Wire Wire Line
	1800 3650 1300 3650
Wire Wire Line
	1300 3650 1300 2350
Wire Wire Line
	1950 3950 1950 3600
Wire Wire Line
	1950 3600 1400 3600
Wire Wire Line
	1400 3600 1400 2350
Wire Wire Line
	2100 3950 2100 3550
Wire Wire Line
	2100 3550 1500 3550
Wire Wire Line
	1500 3550 1500 2350
Wire Wire Line
	2250 3950 2250 3500
Wire Wire Line
	2250 3500 1600 3500
Wire Wire Line
	1600 3500 1600 2350
Wire Wire Line
	2400 3950 2400 3450
Wire Wire Line
	2400 3450 1700 3450
Wire Wire Line
	1700 3450 1700 2350
Wire Wire Line
	2550 3950 2550 3400
Wire Wire Line
	2550 3400 1800 3400
Wire Wire Line
	1800 3400 1800 2350
Wire Wire Line
	2700 3950 2700 3350
Wire Wire Line
	2700 3350 1900 3350
Wire Wire Line
	1900 3350 1900 2350
Wire Wire Line
	2850 3950 2850 3300
Wire Wire Line
	2850 3300 2000 3300
Wire Wire Line
	2000 3300 2000 2350
$Comp
L power:GND #PWR0101
U 1 1 5E20E853
P 3450 2550
F 0 "#PWR0101" H 3450 2300 50  0001 C CNN
F 1 "GND" H 3455 2377 50  0000 C CNN
F 2 "" H 3450 2550 50  0001 C CNN
F 3 "" H 3450 2550 50  0001 C CNN
	1    3450 2550
	1    0    0    -1  
$EndComp
Wire Wire Line
	3400 2350 3400 2450
Wire Wire Line
	3400 2450 3450 2450
Wire Wire Line
	3500 2450 3500 2350
Wire Wire Line
	3450 2550 3450 2450
Connection ~ 3450 2450
Wire Wire Line
	3450 2450 3500 2450
Wire Wire Line
	2300 2350 2300 2450
Wire Wire Line
	2300 2450 2400 2450
Wire Wire Line
	2400 2450 2400 2350
Wire Wire Line
	2100 2350 2100 2450
Wire Wire Line
	2100 2450 2300 2450
Connection ~ 2300 2450
$Comp
L power:GND #PWR0102
U 1 1 5E2106A5
P 2300 2550
F 0 "#PWR0102" H 2300 2300 50  0001 C CNN
F 1 "GND" H 2305 2377 50  0000 C CNN
F 2 "" H 2300 2550 50  0001 C CNN
F 3 "" H 2300 2550 50  0001 C CNN
	1    2300 2550
	1    0    0    -1  
$EndComp
Wire Wire Line
	2300 2450 2300 2550
$Comp
L power:VDD #PWR0103
U 1 1 5E211014
P 3050 2550
F 0 "#PWR0103" H 3050 2400 50  0001 C CNN
F 1 "VDD" H 3068 2723 50  0000 C CNN
F 2 "" H 3050 2550 50  0001 C CNN
F 3 "" H 3050 2550 50  0001 C CNN
	1    3050 2550
	-1   0    0    1   
$EndComp
Wire Wire Line
	3000 2350 3000 2450
Wire Wire Line
	3000 2450 3050 2450
Wire Wire Line
	3100 2450 3100 2350
Wire Wire Line
	3050 2450 3050 2550
Connection ~ 3050 2450
Wire Wire Line
	3050 2450 3100 2450
$Comp
L power:VDD #PWR0104
U 1 1 5E21306D
P 2550 2550
F 0 "#PWR0104" H 2550 2400 50  0001 C CNN
F 1 "VDD" H 2568 2723 50  0000 C CNN
F 2 "" H 2550 2550 50  0001 C CNN
F 3 "" H 2550 2550 50  0001 C CNN
	1    2550 2550
	-1   0    0    1   
$EndComp
Wire Wire Line
	2500 2350 2500 2450
Wire Wire Line
	2500 2450 2550 2450
Wire Wire Line
	2600 2450 2600 2350
Wire Wire Line
	2550 2450 2550 2550
Connection ~ 2550 2450
Wire Wire Line
	2550 2450 2600 2450
$Comp
L power:GND #PWR0105
U 1 1 5E2149BF
P 2800 2550
F 0 "#PWR0105" H 2800 2300 50  0001 C CNN
F 1 "GND" H 2805 2377 50  0000 C CNN
F 2 "" H 2800 2550 50  0001 C CNN
F 3 "" H 2800 2550 50  0001 C CNN
	1    2800 2550
	1    0    0    -1  
$EndComp
Wire Wire Line
	2700 2350 2700 2450
Wire Wire Line
	2700 2450 2800 2450
Wire Wire Line
	2800 2450 2800 2550
Wire Wire Line
	2900 2350 2900 2450
Wire Wire Line
	2900 2450 2800 2450
Connection ~ 2800 2450
Wire Wire Line
	2800 2350 2800 2450
Wire Wire Line
	3200 2350 3200 2450
Wire Wire Line
	3200 2450 3300 2450
Wire Wire Line
	3300 2450 3300 2350
Wire Wire Line
	3600 2350 3600 3900
Wire Wire Line
	3600 3900 4550 3900
Wire Wire Line
	4550 3900 4550 3950
$Comp
L power:VDD #PWR0106
U 1 1 5E219CE7
P 3800 2550
F 0 "#PWR0106" H 3800 2400 50  0001 C CNN
F 1 "VDD" H 3818 2723 50  0000 C CNN
F 2 "" H 3800 2550 50  0001 C CNN
F 3 "" H 3800 2550 50  0001 C CNN
	1    3800 2550
	-1   0    0    1   
$EndComp
Wire Wire Line
	3800 2350 3800 2550
Wire Wire Line
	4000 2350 4000 2450
Wire Wire Line
	4000 2450 4200 2450
Wire Wire Line
	4400 2450 4400 2350
Wire Wire Line
	4200 2350 4200 2450
Connection ~ 4200 2450
Wire Wire Line
	4200 2450 4400 2450
Wire Wire Line
	4200 2450 4200 2550
$Comp
L power:GND #PWR0107
U 1 1 5E21F137
P 4200 2550
F 0 "#PWR0107" H 4200 2300 50  0001 C CNN
F 1 "GND" H 4205 2377 50  0000 C CNN
F 2 "" H 4200 2550 50  0001 C CNN
F 3 "" H 4200 2550 50  0001 C CNN
	1    4200 2550
	1    0    0    -1  
$EndComp
$Comp
L power:VDD #PWR0108
U 1 1 5E21F154
P 5200 2550
F 0 "#PWR0108" H 5200 2400 50  0001 C CNN
F 1 "VDD" H 5218 2723 50  0000 C CNN
F 2 "" H 5200 2550 50  0001 C CNN
F 3 "" H 5200 2550 50  0001 C CNN
	1    5200 2550
	-1   0    0    1   
$EndComp
Wire Wire Line
	5200 2350 5200 2550
$Comp
L power:GND #PWR0109
U 1 1 5E22086F
P 5400 2550
F 0 "#PWR0109" H 5400 2300 50  0001 C CNN
F 1 "GND" H 5405 2377 50  0000 C CNN
F 2 "" H 5400 2550 50  0001 C CNN
F 3 "" H 5400 2550 50  0001 C CNN
	1    5400 2550
	1    0    0    -1  
$EndComp
Wire Wire Line
	5400 2350 5400 2550
$Comp
L power:GND #PWR0110
U 1 1 5E2220A2
P 5600 2550
F 0 "#PWR0110" H 5600 2300 50  0001 C CNN
F 1 "GND" H 5605 2377 50  0000 C CNN
F 2 "" H 5600 2550 50  0001 C CNN
F 3 "" H 5600 2550 50  0001 C CNN
	1    5600 2550
	1    0    0    -1  
$EndComp
$Comp
L power:VDD #PWR0111
U 1 1 5E2220B1
P 5800 2550
F 0 "#PWR0111" H 5800 2400 50  0001 C CNN
F 1 "VDD" H 5818 2723 50  0000 C CNN
F 2 "" H 5800 2550 50  0001 C CNN
F 3 "" H 5800 2550 50  0001 C CNN
	1    5800 2550
	-1   0    0    1   
$EndComp
Wire Wire Line
	5600 2350 5600 2550
Wire Wire Line
	5800 2350 5800 2550
Wire Wire Line
	7200 2350 7200 2450
Wire Wire Line
	7200 2450 7400 2450
Wire Wire Line
	7400 2450 7400 2350
Wire Wire Line
	7500 2350 7500 2450
Wire Wire Line
	7500 2450 7600 2450
Wire Wire Line
	7700 2450 7700 2350
Wire Wire Line
	7600 2350 7600 2450
Connection ~ 7600 2450
Wire Wire Line
	7600 2450 7700 2450
Wire Wire Line
	7600 2450 7600 2550
$Comp
L power:GND #PWR0112
U 1 1 5E22C4FD
P 7600 2550
F 0 "#PWR0112" H 7600 2300 50  0001 C CNN
F 1 "GND" H 7605 2377 50  0000 C CNN
F 2 "" H 7600 2550 50  0001 C CNN
F 3 "" H 7600 2550 50  0001 C CNN
	1    7600 2550
	1    0    0    -1  
$EndComp
$Comp
L power:VDD #PWR0113
U 1 1 5E22C50C
P 7850 2550
F 0 "#PWR0113" H 7850 2400 50  0001 C CNN
F 1 "VDD" H 7868 2723 50  0000 C CNN
F 2 "" H 7850 2550 50  0001 C CNN
F 3 "" H 7850 2550 50  0001 C CNN
	1    7850 2550
	-1   0    0    1   
$EndComp
Wire Wire Line
	7800 2350 7800 2450
Wire Wire Line
	7800 2450 7850 2450
Wire Wire Line
	7900 2450 7900 2350
Wire Wire Line
	7850 2450 7850 2550
Connection ~ 7850 2450
Wire Wire Line
	7850 2450 7900 2450
Wire Wire Line
	8100 2350 8100 2450
Wire Wire Line
	8100 2450 8200 2450
Wire Wire Line
	8200 2450 8200 2350
Wire Wire Line
	8200 2450 8300 2450
Wire Wire Line
	8300 2450 8300 2350
Connection ~ 8200 2450
Wire Wire Line
	8400 2350 8400 2450
Wire Wire Line
	8400 2450 8500 2450
Wire Wire Line
	8600 2450 8600 2350
Wire Wire Line
	8500 2450 8500 2550
Connection ~ 8500 2450
Wire Wire Line
	8500 2450 8600 2450
$Comp
L power:VDD #PWR0114
U 1 1 5E239AA6
P 8500 2550
F 0 "#PWR0114" H 8500 2400 50  0001 C CNN
F 1 "VDD" H 8518 2723 50  0000 C CNN
F 2 "" H 8500 2550 50  0001 C CNN
F 3 "" H 8500 2550 50  0001 C CNN
	1    8500 2550
	-1   0    0    1   
$EndComp
Wire Wire Line
	8700 2350 8700 2450
Wire Wire Line
	8700 2450 8900 2450
Wire Wire Line
	8900 2450 8900 2350
Wire Wire Line
	9100 2350 9100 2450
Wire Wire Line
	9100 2450 9200 2450
Wire Wire Line
	9300 2450 9300 2350
Wire Wire Line
	9200 2450 9200 2550
Connection ~ 9200 2450
Wire Wire Line
	9200 2450 9300 2450
$Comp
L power:GND #PWR0115
U 1 1 5E241CD9
P 9200 2550
F 0 "#PWR0115" H 9200 2300 50  0001 C CNN
F 1 "GND" H 9205 2377 50  0000 C CNN
F 2 "" H 9200 2550 50  0001 C CNN
F 3 "" H 9200 2550 50  0001 C CNN
	1    9200 2550
	1    0    0    -1  
$EndComp
$Comp
L power:VDD #PWR0116
U 1 1 5E241CF8
P 10100 2550
F 0 "#PWR0116" H 10100 2400 50  0001 C CNN
F 1 "VDD" H 10118 2723 50  0000 C CNN
F 2 "" H 10100 2550 50  0001 C CNN
F 3 "" H 10100 2550 50  0001 C CNN
	1    10100 2550
	-1   0    0    1   
$EndComp
$Comp
L power:VDD #PWR0117
U 1 1 5E241D07
P 10500 2550
F 0 "#PWR0117" H 10500 2400 50  0001 C CNN
F 1 "VDD" H 10518 2723 50  0000 C CNN
F 2 "" H 10500 2550 50  0001 C CNN
F 3 "" H 10500 2550 50  0001 C CNN
	1    10500 2550
	-1   0    0    1   
$EndComp
$Comp
L power:GND #PWR0118
U 1 1 5E241D16
P 10300 2550
F 0 "#PWR0118" H 10300 2300 50  0001 C CNN
F 1 "GND" H 10305 2377 50  0000 C CNN
F 2 "" H 10300 2550 50  0001 C CNN
F 3 "" H 10300 2550 50  0001 C CNN
	1    10300 2550
	1    0    0    -1  
$EndComp
$Comp
L power:GND #PWR0119
U 1 1 5E241D25
P 10700 2550
F 0 "#PWR0119" H 10700 2300 50  0001 C CNN
F 1 "GND" H 10705 2377 50  0000 C CNN
F 2 "" H 10700 2550 50  0001 C CNN
F 3 "" H 10700 2550 50  0001 C CNN
	1    10700 2550
	1    0    0    -1  
$EndComp
Wire Wire Line
	10100 2350 10100 2550
Wire Wire Line
	10300 2350 10300 2550
Wire Wire Line
	10500 2350 10500 2550
Wire Wire Line
	10700 2350 10700 2550
Wire Wire Line
	13100 2350 13100 2450
Wire Wire Line
	13100 2450 13150 2450
Wire Wire Line
	13200 2450 13200 2350
Wire Wire Line
	13150 2450 13150 3100
Wire Wire Line
	13150 3100 15300 3100
Wire Wire Line
	15300 3100 15300 3950
Connection ~ 13150 2450
Wire Wire Line
	13150 2450 13200 2450
$Comp
L power:GND #PWR0120
U 1 1 5E254409
P 15850 5150
F 0 "#PWR0120" H 15850 4900 50  0001 C CNN
F 1 "GND" V 15855 5022 50  0000 R CNN
F 2 "" H 15850 5150 50  0001 C CNN
F 3 "" H 15850 5150 50  0001 C CNN
	1    15850 5150
	0    -1   -1   0   
$EndComp
$Comp
L power:VDD #PWR0121
U 1 1 5E25441E
P 15850 4750
F 0 "#PWR0121" H 15850 4600 50  0001 C CNN
F 1 "VDD" V 15867 4878 50  0000 L CNN
F 2 "" H 15850 4750 50  0001 C CNN
F 3 "" H 15850 4750 50  0001 C CNN
	1    15850 4750
	0    1    1    0   
$EndComp
Wire Wire Line
	15700 4750 15850 4750
Wire Wire Line
	15700 5150 15850 5150
Text Label 700  2600 1    50   ~ 0
Clk_N
Text Label 800  2600 1    50   ~ 0
Clk_P
Text Label 900  2600 1    50   ~ 0
Sin_N
Text Label 1000 2600 1    50   ~ 0
Sin_P
Text Label 1100 2700 1    50   ~ 0
DOutA_P
Text Label 1200 2700 1    50   ~ 0
DOutA_N
Text Label 1300 2700 1    50   ~ 0
DOutB_P
Text Label 1400 2700 1    50   ~ 0
DOutB_N
Text Label 1500 2700 1    50   ~ 0
DOutC_P
Text Label 1600 2700 1    50   ~ 0
DOutC_N
Text Label 1700 2700 1    50   ~ 0
DOutD_P
Text Label 1800 2700 1    50   ~ 0
DOutD_N
Text Label 1900 2800 1    50   ~ 0
SyncRes_P
Text Label 2000 2800 1    50   ~ 0
SyncRes_N
Text Label 3250 2450 3    50   ~ 0
VSSA
Text Label 3600 3050 1    50   ~ 0
TemperatureDiode
Text Label 7300 2450 3    50   ~ 0
POR_ResN
Text Label 8800 2450 3    50   ~ 0
VSSA
$Comp
L power:GND #PWR0122
U 1 1 5E264577
P 8200 2550
F 0 "#PWR0122" H 8200 2300 50  0001 C CNN
F 1 "GND" H 8205 2377 50  0000 C CNN
F 2 "" H 8200 2550 50  0001 C CNN
F 3 "" H 8200 2550 50  0001 C CNN
	1    8200 2550
	1    0    0    -1  
$EndComp
Wire Wire Line
	8200 2450 8200 2550
Text Label 13450 3100 0    50   ~ 0
Substrate
$EndSCHEMATC
