X Clk_N 1 0 0 200 D 50 50 0 0 I
X Clk_P 2 150 0 200 D 50 50 0 0 I
X SIn_N 3 300 0 200 D 50 50 0 0 I
X SIn_P 4 450 0 200 D 50 50 0 0 I
X DOutA_P 5 600 0 200 D 50 50 0 0 O
X DOutA_N 6 750 0 200 D 50 50 0 0 O
X DOutB_P 7 900 0 200 D 50 50 0 0 O
X DOutB_N 8 1050 0 200 D 50 50 0 0 O
X DOutC_P 9 1200 0 200 D 50 50 0 0 O
X DOutC_N 10 1350 0 200 D 50 50 0 0 O
X DOutD_P 11 1500 0 200 D 50 50 0 0 O
X DOutD_N 12 1650 0 200 D 50 50 0 0 O
X SyncRes_P 13 1800 0 200 D 50 50 0 0 I
X SyncRes_N 14 1950 0 200 D 50 50 0 0 I
X VInDL 15 2100 0 200 D 50 50 0 0 I
X SubstratePads 16 2250 0 200 D 50 50 0 0 I
X ShuntDL 17 2400 0 200 D 50 50 0 0 U
X VOutDL 18 2550 0 200 D 50 50 0 0 U
X VInAL 19 2700 0 200 D 50 50 0 0 U
X ShuntAL 20 2850 0 200 D 50 50 0 0 U
X VOutAL 21 3000 0 200 D 50 50 0 0 U
X VOutSL 22 3150 0 200 D 50 50 0 0 U
X TemperatureDiode 23 3300 0 200 D 50 50 0 0 U
X SInExt 24 3450 0 200 D 50 50 0 0 U
X A<0> 25 3600 0 200 D 50 50 0 0 U
X Clk1Ext 26 3750 0 200 D 50 50 0 0 U
X A<1> 27 3900 0 200 D 50 50 0 0 U
X Clk2Ext 28 4050 0 200 D 50 50 0 0 U
X A<2> 29 4200 0 200 D 50 50 0 0 U
X LdTestExt 30 4350 0 200 D 50 50 0 0 U
X A<3> 31 4500 0 200 D 50 50 0 0 U
X LdColExt 32 4650 0 200 D 50 50 0 0 U
X ConnectResistor 33 4800 0 200 D 50 50 0 0 U
X LdTDACExt 34 4950 0 200 D 50 50 0 0 U
X ToVCO 35 5100 0 200 D 50 50 0 0 U
X NotToVCO 36 5250 0 200 D 50 50 0 0 U
X UseSPI 37 5400 0 200 D 50 50 0 0 U
X LdConfExt 38 5550 0 200 D 50 50 0 0 U
X EnableSC 39 5700 0 200 D 50 50 0 0 U
X LdBiasExt 40 5850 0 200 D 50 50 0 0 U
X ClkExt_N 41 6000 0 200 D 50 50 0 0 U
X LdVDACExt 42 6150 0 200 D 50 50 0 0 U
X ClkExt_P 43 6300 0 200 D 50 50 0 0 U
X InjIn 44 6450 0 200 D 50 50 0 0 U
X MOSI 45 6600 0 200 D 50 50 0 0 U
X UseSPIRO 46 6750 0 200 D 50 50 0 0 U
X SCK 47 6900 0 200 D 50 50 0 0 U
X WrExt 48 7050 0 200 D 50 50 0 0 U
X CSB 49 7200 0 200 D 50 50 0 0 U
X NOT_CONNECTED 50 7350 0 200 D 50 50 0 0 U
X MISO 51 7500 0 200 D 50 50 0 0 U
X NOT_CONNECTED 52 7650 0 200 D 50 50 0 0 U
X POR 53 7800 0 200 D 50 50 0 0 U
X HBOut 54 7950 0 200 D 50 50 0 0 U
X ResN 55 8100 0 200 D 50 50 0 0 U
X VInDR 56 8250 0 200 D 50 50 0 0 U
X ShuntDR 57 8400 0 200 D 50 50 0 0 U
X VOutDR 58 8550 0 200 D 50 50 0 0 U
X DRef 59 8700 0 200 D 50 50 0 0 U
X VInAR 60 8850 0 200 D 50 50 0 0 U
X ShuntAR 61 9000 0 200 D 50 50 0 0 U
X VOutAR 62 9150 0 200 D 50 50 0 0 U
X ARef 63 9300 0 200 D 50 50 0 0 U
X VOutSR 64 9450 0 200 D 50 50 0 0 U
X GateVSS 65 9600 0 200 D 50 50 0 0 U
X InjOut 66 9750 0 200 D 50 50 0 0 U
X AOut 67 9900 0 200 D 50 50 0 0 U
X ThresholdHigh 68 10050 0 200 D 50 50 0 0 U
X ThresholdLow 69 10200 0 200 D 50 50 0 0 U
X BL 70 10350 0 200 D 50 50 0 0 U
X BLPix 71 10500 0 200 D 50 50 0 0 U
X ThresholdPix 72 10650 0 200 D 50 50 0 0 U
X TestOut 73 10800 0 200 D 50 50 0 0 U
X RefVSS 74 10950 0 200 D 50 50 0 0 U
X Gate_N 75 11100 0 200 D 50 50 0 0 U
X Gate_P 76 11250 0 200 D 50 50 0 0 U
X Gate_N 77 11400 0 200 D 50 50 0 0 U
X Gate_P 78 11550 0 200 D 50 50 0 0 U
X BLDig 79 11700 0 200 D 50 50 0 0 U
X NOut 80 11850 0 200 D 50 50 0 0 U
X NTimer 81 12000 0 200 D 50 50 0 0 U
X PTimer 82 12150 0 200 D 50 50 0 0 U
X PLod 83 12300 0 200 D 50 50 0 0 U
X PDell 84 12450 0 200 D 50 50 0 0 U
X NDell 85 12600 0 200 D 50 50 0 0 U
X NFoll 86 12750 0 200 D 50 50 0 0 U
X NFB 87 12900 0 200 D 50 50 0 0 U
X NAmp 88 13050 0 200 D 50 50 0 0 U
X BLRPix 89 13200 0 200 D 50 50 0 0 U
X PComp1 90 13350 0 200 D 50 50 0 0 U
X PComp2 91 13500 0 200 D 50 50 0 0 U
X PDAC 92 13650 0 200 D 50 50 0 0 U
X Substrate 93 13800 0 200 D 50 50 0 0 I
